execve("/bin/ls", ["ls"], [/* 38 vars */]) = 0
brk(0)                                  = 0x15af000
access("/etc/ld.so.nohwcap", F_OK)      = -1 ENOENT (No such file or directory)
mmap(NULL, 8192, PROT_READ|PROT_WRITE, MAP_PRIVATE|MAP_ANONYMOUS, -1, 0) = 0x7f625489c000
access("/etc/ld.so.preload", R_OK)      = -1 ENOENT (No such file or directory)
open("/etc/ld.so.cache", O_RDONLY|O_CLOEXEC) = 3
fstat(3, {st_mode=S_IFREG|0644, st_size=97894, ...}) = 0
mmap(NULL, 97894, PROT_READ, MAP_PRIVATE, 3, 0) = 0x7f6254884000
close(3)                                = 0
access("/etc/ld.so.nohwcap", F_OK)      = -1 ENOENT (No such file or directory)
open("/lib/x86_64-linux-gnu/libselinux.so.1", O_RDONLY|O_CLOEXEC) = 3
read(3, "\177ELF\2\1\1\0\0\0\0\0\0\0\0\0\3\0>\0\1\0\0\0\200V\0\0\0\0\0\0"..., 832) = 832
fstat(3, {st_mode=S_IFREG|0644, st_size=121824, ...}) = 0
mmap(NULL, 2221712, PROT_READ|PROT_EXEC, MAP_PRIVATE|MAP_DENYWRITE, 3, 0) = 0x7f625445d000
mprotect(0x7f625447a000, 2093056, PROT_NONE) = 0
mmap(0x7f6254679000, 8192, PROT_READ|PROT_WRITE, MAP_PRIVATE|MAP_FIXED|MAP_DENYWRITE, 3, 0x1c000) = 0x7f6254679000
mmap(0x7f625467b000, 1680, PROT_READ|PROT_WRITE, MAP_PRIVATE|MAP_FIXED|MAP_ANONYMOUS, -1, 0) = 0x7f625467b000
close(3)                                = 0
access("/etc/ld.so.nohwcap", F_OK)      = -1 ENOENT (No such file or directory)
open("/lib/x86_64-linux-gnu/librt.so.1", O_RDONLY|O_CLOEXEC) = 3
read(3, "\177ELF\2\1\1\0\0\0\0\0\0\0\0\0\3\0>\0\1\0\0\0\340!\0\0\0\0\0\0"..., 832) = 832
fstat(3, {st_mode=S_IFREG|0644, st_size=31784, ...}) = 0
mmap(NULL, 2129016, PROT_READ|PROT_EXEC, MAP_PRIVATE|MAP_DENYWRITE, 3, 0) = 0x7f6254255000
mprotect(0x7f625425c000, 2093056, PROT_NONE) = 0
mmap(0x7f625445b000, 8192, PROT_READ|PROT_WRITE, MAP_PRIVATE|MAP_FIXED|MAP_DENYWRITE, 3, 0x6000) = 0x7f625445b000
close(3)                                = 0
access("/etc/ld.so.nohwcap", F_OK)      = -1 ENOENT (No such file or directory)
open("/lib/x86_64-linux-gnu/libacl.so.1", O_RDONLY|O_CLOEXEC) = 3
read(3, "\177ELF\2\1\1\0\0\0\0\0\0\0\0\0\3\0>\0\1\0\0\0000\34\0\0\0\0\0\0"..., 832) = 832
fstat(3, {st_mode=S_IFREG|0644, st_size=31168, ...}) = 0
mmap(NULL, 4096, PROT_READ|PROT_WRITE, MAP_PRIVATE|MAP_ANONYMOUS, -1, 0) = 0x7f6254883000
mmap(NULL, 2126336, PROT_READ|PROT_EXEC, MAP_PRIVATE|MAP_DENYWRITE, 3, 0) = 0x7f625404d000
mprotect(0x7f6254054000, 2093056, PROT_NONE) = 0
mmap(0x7f6254253000, 8192, PROT_READ|PROT_WRITE, MAP_PRIVATE|MAP_FIXED|MAP_DENYWRITE, 3, 0x6000) = 0x7f6254253000
close(3)                                = 0
access("/etc/ld.so.nohwcap", F_OK)      = -1 ENOENT (No such file or directory)
open("/lib/x86_64-linux-gnu/libc.so.6", O_RDONLY|O_CLOEXEC) = 3
read(3, "\177ELF\2\1\1\0\0\0\0\0\0\0\0\0\3\0>\0\1\0\0\0\200\30\2\0\0\0\0\0"..., 832) = 832
fstat(3, {st_mode=S_IFREG|0755, st_size=1811160, ...}) = 0
mmap(NULL, 3925240, PROT_READ|PROT_EXEC, MAP_PRIVATE|MAP_DENYWRITE, 3, 0) = 0x7f6253c8e000
mprotect(0x7f6253e43000, 2093056, PROT_NONE) = 0
mmap(0x7f6254042000, 24576, PROT_READ|PROT_WRITE, MAP_PRIVATE|MAP_FIXED|MAP_DENYWRITE, 3, 0x1b4000) = 0x7f6254042000
mmap(0x7f6254048000, 17656, PROT_READ|PROT_WRITE, MAP_PRIVATE|MAP_FIXED|MAP_ANONYMOUS, -1, 0) = 0x7f6254048000
close(3)                                = 0
access("/etc/ld.so.nohwcap", F_OK)      = -1 ENOENT (No such file or directory)
open("/lib/x86_64-linux-gnu/libdl.so.2", O_RDONLY|O_CLOEXEC) = 3
read(3, "\177ELF\2\1\1\0\0\0\0\0\0\0\0\0\3\0>\0\1\0\0\0\340\r\0\0\0\0\0\0"..., 832) = 832
fstat(3, {st_mode=S_IFREG|0644, st_size=14792, ...}) = 0
mmap(NULL, 2109736, PROT_READ|PROT_EXEC, MAP_PRIVATE|MAP_DENYWRITE, 3, 0) = 0x7f6253a8a000
mprotect(0x7f6253a8c000, 2097152, PROT_NONE) = 0
mmap(0x7f6253c8c000, 8192, PROT_READ|PROT_WRITE, MAP_PRIVATE|MAP_FIXED|MAP_DENYWRITE, 3, 0x2000) = 0x7f6253c8c000
close(3)                                = 0
access("/etc/ld.so.nohwcap", F_OK)      = -1 ENOENT (No such file or directory)
open("/lib/x86_64-linux-gnu/libpthread.so.0", O_RDONLY|O_CLOEXEC) = 3
read(3, "\177ELF\2\1\1\0\0\0\0\0\0\0\0\0\3\0>\0\1\0\0\0\200l\0\0\0\0\0\0"..., 832) = 832
fstat(3, {st_mode=S_IFREG|0755, st_size=135398, ...}) = 0
mmap(NULL, 4096, PROT_READ|PROT_WRITE, MAP_PRIVATE|MAP_ANONYMOUS, -1, 0) = 0x7f6254882000
mmap(NULL, 2212936, PROT_READ|PROT_EXEC, MAP_PRIVATE|MAP_DENYWRITE, 3, 0) = 0x7f625386d000
mprotect(0x7f6253885000, 2093056, PROT_NONE) = 0
mmap(0x7f6253a84000, 8192, PROT_READ|PROT_WRITE, MAP_PRIVATE|MAP_FIXED|MAP_DENYWRITE, 3, 0x17000) = 0x7f6253a84000
mmap(0x7f6253a86000, 13384, PROT_READ|PROT_WRITE, MAP_PRIVATE|MAP_FIXED|MAP_ANONYMOUS, -1, 0) = 0x7f6253a86000
close(3)                                = 0
access("/etc/ld.so.nohwcap", F_OK)      = -1 ENOENT (No such file or directory)
open("/lib/x86_64-linux-gnu/libattr.so.1", O_RDONLY|O_CLOEXEC) = 3
read(3, "\177ELF\2\1\1\0\0\0\0\0\0\0\0\0\3\0>\0\1\0\0\0\240\20\0\0\0\0\0\0"..., 832) = 832
fstat(3, {st_mode=S_IFREG|0644, st_size=18560, ...}) = 0
mmap(NULL, 2113728, PROT_READ|PROT_EXEC, MAP_PRIVATE|MAP_DENYWRITE, 3, 0) = 0x7f6253668000
mprotect(0x7f625366c000, 2093056, PROT_NONE) = 0
mmap(0x7f625386b000, 8192, PROT_READ|PROT_WRITE, MAP_PRIVATE|MAP_FIXED|MAP_DENYWRITE, 3, 0x3000) = 0x7f625386b000
close(3)                                = 0
mmap(NULL, 4096, PROT_READ|PROT_WRITE, MAP_PRIVATE|MAP_ANONYMOUS, -1, 0) = 0x7f6254881000
mmap(NULL, 8192, PROT_READ|PROT_WRITE, MAP_PRIVATE|MAP_ANONYMOUS, -1, 0) = 0x7f625487f000
arch_prctl(ARCH_SET_FS, 0x7f625487f7c0) = 0
mprotect(0x7f6254042000, 16384, PROT_READ) = 0
mprotect(0x7f625386b000, 4096, PROT_READ) = 0
mprotect(0x7f6253a84000, 4096, PROT_READ) = 0
mprotect(0x7f6253c8c000, 4096, PROT_READ) = 0
mprotect(0x7f6254253000, 4096, PROT_READ) = 0
mprotect(0x7f625445b000, 4096, PROT_READ) = 0
mprotect(0x7f6254679000, 4096, PROT_READ) = 0
mprotect(0x619000, 4096, PROT_READ)     = 0
mprotect(0x7f625489e000, 4096, PROT_READ) = 0
munmap(0x7f6254884000, 97894)           = 0
set_tid_address(0x7f625487fa90)         = 8429
set_robust_list(0x7f625487faa0, 0x18)   = 0
futex(0x7fffbb5b3eac, FUTEX_WAIT_BITSET_PRIVATE|FUTEX_CLOCK_REALTIME, 1, NULL, 7f625487f7c0) = -1 EAGAIN (Resource temporarily unavailable)
rt_sigaction(SIGRTMIN, {0x7f6253873750, [], SA_RESTORER|SA_SIGINFO, 0x7f625387ccb0}, NULL, 8) = 0
rt_sigaction(SIGRT_1, {0x7f62538737e0, [], SA_RESTORER|SA_RESTART|SA_SIGINFO, 0x7f625387ccb0}, NULL, 8) = 0
rt_sigprocmask(SIG_UNBLOCK, [RTMIN RT_1], NULL, 8) = 0
getrlimit(RLIMIT_STACK, {rlim_cur=8192*1024, rlim_max=RLIM_INFINITY}) = 0
statfs("/sys/fs/selinux", 0x7fffbb5b3e00) = -1 ENOENT (No such file or directory)
statfs("/selinux", {f_type="EXT2_SUPER_MAGIC", f_bsize=4096, f_blocks=8650691, f_bfree=2155507, f_bavail=1716071, f_files=2199344, f_ffree=1991020, f_fsid={-1740159228, -320725895}, f_namelen=255, f_frsize=4096}) = 0
brk(0)                                  = 0x15af000
brk(0x15d0000)                          = 0x15d0000
open("/proc/filesystems", O_RDONLY)     = 3
fstat(3, {st_mode=S_IFREG|0444, st_size=0, ...}) = 0
mmap(NULL, 4096, PROT_READ|PROT_WRITE, MAP_PRIVATE|MAP_ANONYMOUS, -1, 0) = 0x7f625489b000
read(3, "nodev\tsysfs\nnodev\trootfs\nnodev\tb"..., 1024) = 359
read(3, "", 1024)                       = 0
close(3)                                = 0
munmap(0x7f625489b000, 4096)            = 0
open("/usr/lib/locale/locale-archive", O_RDONLY|O_CLOEXEC) = 3
fstat(3, {st_mode=S_IFREG|0644, st_size=7472592, ...}) = 0
mmap(NULL, 7472592, PROT_READ, MAP_PRIVATE, 3, 0) = 0x7f6252f47000
close(3)                                = 0
ioctl(1, SNDCTL_TMR_TIMEBASE or TCGETS, {B38400 opost isig icanon echo ...}) = 0
ioctl(1, TIOCGWINSZ, {ws_row=48, ws_col=121, ws_xpixel=0, ws_ypixel=0}) = 0
openat(AT_FDCWD, ".", O_RDONLY|O_NONBLOCK|O_DIRECTORY|O_CLOEXEC) = 3
getdents(3, /* 5 entries */, 32768)     = 136
getdents(3, /* 0 entries */, 32768)     = 0
close(3)                                = 0
fstat(1, {st_mode=S_IFCHR|0620, st_rdev=makedev(136, 0), ...}) = 0
mmap(NULL, 4096, PROT_READ|PROT_WRITE, MAP_PRIVATE|MAP_ANONYMOUS, -1, 0) = 0x7f625489b000
write(1, "readme.txt  trace_ls.txt\n", 25) = 25
close(1)                                = 0
munmap(0x7f625489b000, 4096)            = 0
close(2)                                = 0
exit_group(0)                           = ?
