     0.000000 execve("/bin/ls", ["ls"], [/* 38 vars */]) = 0
     0.000506 brk(0)                    = 0x170d000
     0.000203 access("/etc/ld.so.nohwcap", F_OK) = -1 ENOENT (No such file or directory)
     0.000195 mmap(NULL, 8192, PROT_READ|PROT_WRITE, MAP_PRIVATE|MAP_ANONYMOUS, -1, 0) = 0x7fd92cdd9000
     0.000155 access("/etc/ld.so.preload", R_OK) = -1 ENOENT (No such file or directory)
     0.000066 open("/etc/ld.so.cache", O_RDONLY|O_CLOEXEC) = 3
     0.000052 fstat(3, {st_mode=S_IFREG|0644, st_size=97894, ...}) = 0
     0.000093 mmap(NULL, 97894, PROT_READ, MAP_PRIVATE, 3, 0) = 0x7fd92cdc1000
     0.000034 close(3)                  = 0
     0.000031 access("/etc/ld.so.nohwcap", F_OK) = -1 ENOENT (No such file or directory)
     0.000041 open("/lib/x86_64-linux-gnu/libselinux.so.1", O_RDONLY|O_CLOEXEC) = 3
     0.000035 read(3, "\177ELF\2\1\1\0\0\0\0\0\0\0\0\0\3\0>\0\1\0\0\0\200V\0\0\0\0\0\0"..., 832) = 832
     0.000048 fstat(3, {st_mode=S_IFREG|0644, st_size=121824, ...}) = 0
     0.000044 mmap(NULL, 2221712, PROT_READ|PROT_EXEC, MAP_PRIVATE|MAP_DENYWRITE, 3, 0) = 0x7fd92c99a000
     0.000031 mprotect(0x7fd92c9b7000, 2093056, PROT_NONE) = 0
     0.000034 mmap(0x7fd92cbb6000, 8192, PROT_READ|PROT_WRITE, MAP_PRIVATE|MAP_FIXED|MAP_DENYWRITE, 3, 0x1c000) = 0x7fd92cbb6000
     0.000041 mmap(0x7fd92cbb8000, 1680, PROT_READ|PROT_WRITE, MAP_PRIVATE|MAP_FIXED|MAP_ANONYMOUS, -1, 0) = 0x7fd92cbb8000
     0.000036 close(3)                  = 0
     0.000032 access("/etc/ld.so.nohwcap", F_OK) = -1 ENOENT (No such file or directory)
     0.000033 open("/lib/x86_64-linux-gnu/librt.so.1", O_RDONLY|O_CLOEXEC) = 3
     0.000037 read(3, "\177ELF\2\1\1\0\0\0\0\0\0\0\0\0\3\0>\0\1\0\0\0\340!\0\0\0\0\0\0"..., 832) = 832
     0.000037 fstat(3, {st_mode=S_IFREG|0644, st_size=31784, ...}) = 0
     0.000041 mmap(NULL, 2129016, PROT_READ|PROT_EXEC, MAP_PRIVATE|MAP_DENYWRITE, 3, 0) = 0x7fd92c792000
     0.000031 mprotect(0x7fd92c799000, 2093056, PROT_NONE) = 0
     0.000031 mmap(0x7fd92c998000, 8192, PROT_READ|PROT_WRITE, MAP_PRIVATE|MAP_FIXED|MAP_DENYWRITE, 3, 0x6000) = 0x7fd92c998000
     0.000039 close(3)                  = 0
     0.000031 access("/etc/ld.so.nohwcap", F_OK) = -1 ENOENT (No such file or directory)
     0.000039 open("/lib/x86_64-linux-gnu/libacl.so.1", O_RDONLY|O_CLOEXEC) = 3
     0.000035 read(3, "\177ELF\2\1\1\0\0\0\0\0\0\0\0\0\3\0>\0\1\0\0\0000\34\0\0\0\0\0\0"..., 832) = 832
     0.000038 fstat(3, {st_mode=S_IFREG|0644, st_size=31168, ...}) = 0
     0.000041 mmap(NULL, 4096, PROT_READ|PROT_WRITE, MAP_PRIVATE|MAP_ANONYMOUS, -1, 0) = 0x7fd92cdc0000
     0.000034 mmap(NULL, 2126336, PROT_READ|PROT_EXEC, MAP_PRIVATE|MAP_DENYWRITE, 3, 0) = 0x7fd92c58a000
     0.000030 mprotect(0x7fd92c591000, 2093056, PROT_NONE) = 0
     0.000031 mmap(0x7fd92c790000, 8192, PROT_READ|PROT_WRITE, MAP_PRIVATE|MAP_FIXED|MAP_DENYWRITE, 3, 0x6000) = 0x7fd92c790000
     0.000037 close(3)                  = 0
     0.000032 access("/etc/ld.so.nohwcap", F_OK) = -1 ENOENT (No such file or directory)
     0.000034 open("/lib/x86_64-linux-gnu/libc.so.6", O_RDONLY|O_CLOEXEC) = 3
     0.000034 read(3, "\177ELF\2\1\1\0\0\0\0\0\0\0\0\0\3\0>\0\1\0\0\0\200\30\2\0\0\0\0\0"..., 832) = 832
     0.000037 fstat(3, {st_mode=S_IFREG|0755, st_size=1811160, ...}) = 0
     0.000041 mmap(NULL, 3925240, PROT_READ|PROT_EXEC, MAP_PRIVATE|MAP_DENYWRITE, 3, 0) = 0x7fd92c1cb000
     0.000030 mprotect(0x7fd92c380000, 2093056, PROT_NONE) = 0
     0.000031 mmap(0x7fd92c57f000, 24576, PROT_READ|PROT_WRITE, MAP_PRIVATE|MAP_FIXED|MAP_DENYWRITE, 3, 0x1b4000) = 0x7fd92c57f000
     0.000037 mmap(0x7fd92c585000, 17656, PROT_READ|PROT_WRITE, MAP_PRIVATE|MAP_FIXED|MAP_ANONYMOUS, -1, 0) = 0x7fd92c585000
     0.000035 close(3)                  = 0
     0.000032 access("/etc/ld.so.nohwcap", F_OK) = -1 ENOENT (No such file or directory)
     0.000036 open("/lib/x86_64-linux-gnu/libdl.so.2", O_RDONLY|O_CLOEXEC) = 3
     0.000034 read(3, "\177ELF\2\1\1\0\0\0\0\0\0\0\0\0\3\0>\0\1\0\0\0\340\r\0\0\0\0\0\0"..., 832) = 832
     0.000037 fstat(3, {st_mode=S_IFREG|0644, st_size=14792, ...}) = 0
     0.000041 mmap(NULL, 2109736, PROT_READ|PROT_EXEC, MAP_PRIVATE|MAP_DENYWRITE, 3, 0) = 0x7fd92bfc7000
     0.000038 mprotect(0x7fd92bfc9000, 2097152, PROT_NONE) = 0
     0.000032 mmap(0x7fd92c1c9000, 8192, PROT_READ|PROT_WRITE, MAP_PRIVATE|MAP_FIXED|MAP_DENYWRITE, 3, 0x2000) = 0x7fd92c1c9000
     0.000037 close(3)                  = 0
     0.000032 access("/etc/ld.so.nohwcap", F_OK) = -1 ENOENT (No such file or directory)
     0.000034 open("/lib/x86_64-linux-gnu/libpthread.so.0", O_RDONLY|O_CLOEXEC) = 3
     0.000035 read(3, "\177ELF\2\1\1\0\0\0\0\0\0\0\0\0\3\0>\0\1\0\0\0\200l\0\0\0\0\0\0"..., 832) = 832
     0.000036 fstat(3, {st_mode=S_IFREG|0755, st_size=135398, ...}) = 0
     0.000041 mmap(NULL, 4096, PROT_READ|PROT_WRITE, MAP_PRIVATE|MAP_ANONYMOUS, -1, 0) = 0x7fd92cdbf000
     0.000034 mmap(NULL, 2212936, PROT_READ|PROT_EXEC, MAP_PRIVATE|MAP_DENYWRITE, 3, 0) = 0x7fd92bdaa000
     0.000029 mprotect(0x7fd92bdc2000, 2093056, PROT_NONE) = 0
     0.000031 mmap(0x7fd92bfc1000, 8192, PROT_READ|PROT_WRITE, MAP_PRIVATE|MAP_FIXED|MAP_DENYWRITE, 3, 0x17000) = 0x7fd92bfc1000
     0.000036 mmap(0x7fd92bfc3000, 13384, PROT_READ|PROT_WRITE, MAP_PRIVATE|MAP_FIXED|MAP_ANONYMOUS, -1, 0) = 0x7fd92bfc3000
     0.000034 close(3)                  = 0
     0.000032 access("/etc/ld.so.nohwcap", F_OK) = -1 ENOENT (No such file or directory)
     0.000034 open("/lib/x86_64-linux-gnu/libattr.so.1", O_RDONLY|O_CLOEXEC) = 3
     0.000035 read(3, "\177ELF\2\1\1\0\0\0\0\0\0\0\0\0\3\0>\0\1\0\0\0\240\20\0\0\0\0\0\0"..., 832) = 832
     0.000036 fstat(3, {st_mode=S_IFREG|0644, st_size=18560, ...}) = 0
     0.000041 mmap(NULL, 2113728, PROT_READ|PROT_EXEC, MAP_PRIVATE|MAP_DENYWRITE, 3, 0) = 0x7fd92bba5000
     0.000031 mprotect(0x7fd92bba9000, 2093056, PROT_NONE) = 0
     0.000030 mmap(0x7fd92bda8000, 8192, PROT_READ|PROT_WRITE, MAP_PRIVATE|MAP_FIXED|MAP_DENYWRITE, 3, 0x3000) = 0x7fd92bda8000
     0.000086 close(3)                  = 0
     0.000079 mmap(NULL, 4096, PROT_READ|PROT_WRITE, MAP_PRIVATE|MAP_ANONYMOUS, -1, 0) = 0x7fd92cdbe000
     0.000096 mmap(NULL, 8192, PROT_READ|PROT_WRITE, MAP_PRIVATE|MAP_ANONYMOUS, -1, 0) = 0x7fd92cdbc000
     0.000090 arch_prctl(ARCH_SET_FS, 0x7fd92cdbc7c0) = 0
     0.000173 mprotect(0x7fd92c57f000, 16384, PROT_READ) = 0
     0.000076 mprotect(0x7fd92bda8000, 4096, PROT_READ) = 0
     0.000077 mprotect(0x7fd92bfc1000, 4096, PROT_READ) = 0
     0.000067 mprotect(0x7fd92c1c9000, 4096, PROT_READ) = 0
     0.000066 mprotect(0x7fd92c790000, 4096, PROT_READ) = 0
     0.000047 mprotect(0x7fd92c998000, 4096, PROT_READ) = 0
     0.000049 mprotect(0x7fd92cbb6000, 4096, PROT_READ) = 0
     0.000038 mprotect(0x619000, 4096, PROT_READ) = 0
     0.000036 mprotect(0x7fd92cddb000, 4096, PROT_READ) = 0
     0.000031 munmap(0x7fd92cdc1000, 97894) = 0
     0.000047 set_tid_address(0x7fd92cdbca90) = 8458
     0.000030 set_robust_list(0x7fd92cdbcaa0, 0x18) = 0
     0.000028 futex(0x7fff8c36f81c, FUTEX_WAIT_BITSET_PRIVATE|FUTEX_CLOCK_REALTIME, 1, NULL, 7fd92cdbc7c0) = -1 EAGAIN (Resource temporarily unavailable)
     0.000043 rt_sigaction(SIGRTMIN, {0x7fd92bdb0750, [], SA_RESTORER|SA_SIGINFO, 0x7fd92bdb9cb0}, NULL, 8) = 0
     0.000047 rt_sigaction(SIGRT_1, {0x7fd92bdb07e0, [], SA_RESTORER|SA_RESTART|SA_SIGINFO, 0x7fd92bdb9cb0}, NULL, 8) = 0
     0.000039 rt_sigprocmask(SIG_UNBLOCK, [RTMIN RT_1], NULL, 8) = 0
     0.000038 getrlimit(RLIMIT_STACK, {rlim_cur=8192*1024, rlim_max=RLIM_INFINITY}) = 0
     0.000086 statfs("/sys/fs/selinux", 0x7fff8c36f770) = -1 ENOENT (No such file or directory)
     0.000044 statfs("/selinux", {f_type="EXT2_SUPER_MAGIC", f_bsize=4096, f_blocks=8650691, f_bfree=2155482, f_bavail=1716046, f_files=2199344, f_ffree=1991016, f_fsid={-1740159228, -320725895}, f_namelen=255, f_frsize=4096}) = 0
     0.000101 brk(0)                    = 0x170d000
     0.000027 brk(0x172e000)            = 0x172e000
     0.000040 open("/proc/filesystems", O_RDONLY) = 3
     0.000052 fstat(3, {st_mode=S_IFREG|0444, st_size=0, ...}) = 0
     0.000044 mmap(NULL, 4096, PROT_READ|PROT_WRITE, MAP_PRIVATE|MAP_ANONYMOUS, -1, 0) = 0x7fd92cdd8000
     0.000038 read(3, "nodev\tsysfs\nnodev\trootfs\nnodev\tb"..., 1024) = 359
     0.000063 read(3, "", 1024)         = 0
     0.000034 close(3)                  = 0
     0.000034 munmap(0x7fd92cdd8000, 4096) = 0
     0.000070 open("/usr/lib/locale/locale-archive", O_RDONLY|O_CLOEXEC) = 3
     0.000037 fstat(3, {st_mode=S_IFREG|0644, st_size=7472592, ...}) = 0
     0.000042 mmap(NULL, 7472592, PROT_READ, MAP_PRIVATE, 3, 0) = 0x7fd92b484000
     0.000035 close(3)                  = 0
     0.000066 ioctl(1, SNDCTL_TMR_TIMEBASE or TCGETS, {B38400 opost isig icanon echo ...}) = 0
     0.000052 ioctl(1, TIOCGWINSZ, {ws_row=48, ws_col=121, ws_xpixel=0, ws_ypixel=0}) = 0
     0.000060 openat(AT_FDCWD, ".", O_RDONLY|O_NONBLOCK|O_DIRECTORY|O_CLOEXEC) = 3
     0.000038 getdents(3, /* 6 entries */, 32768) = 176
     0.000073 getdents(3, /* 0 entries */, 32768) = 0
     0.000029 close(3)                  = 0
     0.000055 fstat(1, {st_mode=S_IFCHR|0620, st_rdev=makedev(136, 0), ...}) = 0
     0.000043 mmap(NULL, 4096, PROT_READ|PROT_WRITE, MAP_PRIVATE|MAP_ANONYMOUS, -1, 0) = 0x7fd92cdd8000
     0.000039 write(1, "readme.txt  trace_ls_reltime.txt"..., 47) = 47
     0.000058 close(1)                  = 0
     0.000027 munmap(0x7fd92cdd8000, 4096) = 0
     0.000033 close(2)                  = 0
     0.000046 exit_group(0)             = ?
